;_time;timestampDrone;latitude_raw;latitude;longitude_raw;longitude;altitude;hdop;hacc;vdop;vacc;ping_time;lte_rssi;lte_rsrp;lte_rsrq;lte_rssnr;nr5g_rsrp;nr5g_rsrq;nr5g_snr
0;2024-01-16 11:41:52.981555+00:00;1705405312;554718207;55.4718207;103248828;10.3248828;52.5294544706874;55.0;14.0;85.0;10.0;22.308;-46.70000076293945;-72.9000015258789;-6.699999809265137;25;-81.0;-11.0;16.0
1;2024-01-16 11:41:54.024089+00:00;1705405314;554718207;55.4718207;103248828;10.3248828;52.5294544706874;55.0;14.0;85.0;10.0;21.84;-46.70000076293945;-72.9000015258789;-6.400000095367432;25;-81.0;-11.0;16.5
2;2024-01-16 11:41:55.066997+00:00;1705405315;554718207;55.4718207;103248828;10.3248828;52.5324544706874;55.0;14.0;85.0;10.0;21.675;-46.70000076293945;-72.9000015258789;-6.300000190734863;25;-81.0;-11.0;16.0
3;2024-01-16 11:41:56.106585+00:00;1705405316;554718207;55.4718206;103248828;10.3248828;52.52945462450576;55.0;14.0;85.0;10.0;21.153;-49.099998474121094;-74.9000015258789;-6.199999809265137;24;-81.0;-11.0;16.5
4;2024-01-16 11:41:57.149278+00:00;1705405317;554718208;55.4718207;103248823;10.3248822;52.59445546380109;55.0;14.0;85.0;10.0;22.078;-44.29999923706055;-72.69999694824219;-7.300000190734863;26;-81.0;-11.0;15.0
5;2024-01-16 11:41:58.194418+00:00;1705405318;554718208;55.4718202;103248823;10.3248771;52.800464674347964;55.0;14.0;85.0;10.0;22.355;-42.400001525878906;-67.4000015258789;-6.5;22;-72.0;-11.0;11.5
6;2024-01-16 11:41:59.242051+00:00;1705405319;554718208;55.4718207;103248823;10.3248721;52.97547218118042;55.0;14.0;85.0;10.0;22.847;-38.20000076293945;-63.900001525878906;-5.900000095367432;25;-72.0;-11.0;15.0
7;2024-01-16 11:42:00.284223+00:00;1705405320;554718214;55.4718224;103248710;10.3248716;53.23247039386825;55.0;14.0;85.0;10.0;21.047;-39.70000076293945;-67.80000305175781;-7.099999904632568;19;-72.0;-11.0;13.0
8;2024-01-16 11:42:01.329195+00:00;1705405321;554718214;55.4718225;103248710;10.3248732;53.42346759175556;55.0;14.0;85.0;10.0;19.462;-40.79999923706055;-66.5999984741211;-6.599999904632568;20;-72.0;-11.0;12.0
9;2024-01-16 11:42:02.369196+00:00;1705405322;554718223;55.4718221;103248740;10.3248743;53.63446638632475;55.0;14.0;85.0;10.0;23.524;-48.599998474121094;-74.0;-6.099999904632568;15;-66.0;-11.0;14.0
10;2024-01-16 11:42:03.416765+00:00;1705405323;554718223;55.471822;103248740;10.3248747;53.831465878068784;55.0;14.0;85.0;10.0;19.668;-37.70000076293945;-65.0;-6.599999904632568;24;-66.0;-11.0;17.5
11;2024-01-16 11:42:04.456745+00:00;1705405324;554718220;55.471822;103248749;10.3248749;53.93846554703169;55.0;14.0;85.0;10.0;25.927;-44.0;-71.9000015258789;-7.199999809265137;13;-66.0;-11.0;17.0
12;2024-01-16 11:42:05.501670+00:00;1705405325;554718220;55.4718238;103248749;10.3248709;54.394469399042706;55.0;14.0;85.0;10.0;21.886;-39.5;-67.0999984741211;-6.599999904632568;20;-75.0;-11.0;15.5
13;2024-01-16 11:42:06.544316+00:00;1705405326;554718220;55.4718244;103248749;10.3248696;54.5714706278718;55.0;14.0;85.0;10.0;22.983;-42.900001525878906;-67.4000015258789;-6.199999809265137;18;-65.0;-11.0;16.5
14;2024-01-16 11:42:07.586783+00:00;1705405327;554718244;55.4718238;103248695;10.3248703;54.75647039215301;55.0;14.0;85.0;10.0;21.118;-44.0;-69.19999694824219;-6.400000095367432;16;-65.0;-11.0;16.5
15;2024-01-16 11:42:08.631789+00:00;1705405328;554718244;55.4718234;103248695;10.3248692;54.90647282812714;55.0;14.0;85.0;10.0;21.258;-42.599998474121094;-69.5;-6.900000095367432;15;-72.0;-11.0;19.0
16;2024-01-16 11:42:09.671668+00:00;1705405329;554718230;55.4718227;103248679;10.3248678;54.960476222107836;55.0;14.0;85.0;10.0;23.032;-32.599998474121094;-61.400001525878906;-8.0;18;-60.0;-11.0;22.0
17;2024-01-16 11:42:10.721603+00:00;1705405330;554718230;55.4718224;103248679;10.3248677;54.972476849079435;55.0;14.0;85.0;10.0;22.941;-34.900001525878906;-61.20000076293945;-6.900000095367432;25;-60.0;-11.0;25.0
18;2024-01-16 11:42:11.761792+00:00;1705405331;554718197;55.4718185;103248755;10.3248797;54.99546298576715;55.0;14.0;85.0;10.0;21.66;-41.099998474121094;-68.5;-6.800000190734863;13;-60.0;-11.0;25.0
19;2024-01-16 11:42:12.801784+00:00;1705405332;554718197;55.4718178;103248755;10.324882;54.96146025556136;55.0;14.0;85.0;10.0;21.674;-37.20000076293945;-63.599998474121094;-6.800000190734863;25;-60.0;-11.0;23.0
20;2024-01-16 11:42:13.846692+00:00;1705405333;554718181;55.4718179;103248820;10.3248821;54.954459936224886;56.0;14.0;88.0;10.0;21.902;-41.599998474121094;-68.5999984741211;-7.0;17;-60.0;-11.0;24.0
21;2024-01-16 11:42:14.889296+00:00;1705405334;554718181;55.4718155;103248820;10.3248801;54.951466938215425;56.0;14.0;88.0;10.0;21.626;-45.0;-71.9000015258789;-7.300000190734863;10;-60.0;-11.0;23.5
22;2024-01-16 11:42:15.931604+00:00;1705405335;554718181;55.4718074;103248820;10.3248731;54.97749098357649;56.0;14.0;88.0;10.0;22.879;-41.599998474121094;-67.0999984741211;-6.199999809265137;21;-68.0;-11.0;20.0
23;2024-01-16 11:42:16.969137+00:00;1705405336;554718054;55.4718043;103248708;10.3248698;54.940501213900376;56.0;14.0;88.0;10.0;21.584;-42.599998474121094;-69.19999694824219;-6.5;19;-73.0;-11.0;17.0
24;2024-01-16 11:42:18.009137+00:00;1705405337;554718054;55.471804;103248708;10.3248702;54.57250101327422;56.0;14.0;88.0;10.0;23.41;-37.099998474121094;-64.69999694824219;-6.5;21;-67.0;-11.0;24.0
25;2024-01-16 11:42:19.049259+00:00;1705405339;554718049;55.4718063;103248717;10.3248727;54.340493337610056;56.0;14.0;88.0;10.0;23.196;-42.20000076293945;-65.30000305175781;-7.099999904632568;20;-73.0;-11.0;26.0
26;2024-01-16 11:42:20.096654+00:00;1705405340;554718049;55.471813;103248717;10.3248789;54.08847276985626;56.0;14.0;88.0;10.0;27.063;-39.099998474121094;-67.80000305175781;-6.800000190734863;18;-67.0;-11.0;18.5
27;2024-01-16 11:42:21.136530+00:00;1705405341;554718232;55.4718226;103248872;10.3248866;53.86344525840495;56.0;14.0;88.0;10.0;20.96;-41.099998474121094;-69.30000305175781;-6.800000190734863;14;-72.0;-11.0;15.5
28;2024-01-16 11:42:22.174064+00:00;1705405342;554718232;55.4718292;103248872;10.3248915;53.763426995831615;56.0;14.0;88.0;10.0;21.866;-43.400001525878906;-72.19999694824219;-7.300000190734863;19;-72.0;-11.0;12.0
29;2024-01-16 11:42:23.214201+00:00;1705405343;554718232;55.4718303;103248872;10.3248916;53.7394251382829;56.0;14.0;88.0;10.0;22.706;-45.79999923706055;-73.19999694824219;-7.199999809265137;17;-67.0;-11.0;14.5
30;2024-01-16 11:42:24.261790+00:00;1705405344;554718304;55.4718301;103248908;10.3248913;53.89042594248494;56.0;14.0;88.0;10.0;21.026;-43.099998474121094;-70.4000015258789;-6.900000095367432;18;-67.0;-11.0;15.0
31;2024-01-16 11:42:25.304204+00:00;1705405345;554718304;55.47183;103248908;10.3248916;54.28542559974551;56.0;14.0;88.0;10.0;21.128;-37.099998474121094;-65.69999694824219;-7.099999904632568;18;-67.0;-11.0;16.0
32;2024-01-16 11:42:26.344146+00:00;1705405346;554718302;55.4718303;103248920;10.324892;54.633424476202386;56.0;14.0;88.0;10.0;19.729;-40.20000076293945;-65.4000015258789;-6.300000190734863;20;-67.0;-11.0;13.5
33;2024-01-16 11:42:27.389027+00:00;1705405347;554718302;55.4718307;103248920;10.3248919;54.65942402643865;56.0;14.0;88.0;10.0;20.745;-37.099998474121094;-66.69999694824219;-8.600000381469727;15;-74.0;-11.0;14.0
34;2024-01-16 11:42:28.429329+00:00;1705405348;554718311;55.4718311;103248922;10.324892;54.64542324563426;56.0;14.0;88.0;10.0;20.788;-40.29999923706055;-67.0999984741211;-7.800000190734863;19;-74.0;-11.0;15.5
35;2024-01-16 11:42:29.471522+00:00;1705405349;554718311;55.4718307;103248922;10.3248921;54.61742369539833;56.0;14.0;88.0;10.0;19.946;-39.29999923706055;-66.0999984741211;-7.0;19;-69.0;-11.0;17.0
36;2024-01-16 11:42:30.516640+00:00;1705405350;554718311;55.4718302;103248922;10.3248915;54.633425457623886;56.0;14.0;88.0;10.0;20.567;-40.70000076293945;-65.80000305175781;-6.0;18;-69.0;-11.0;17.0
37;2024-01-16 11:42:31.561744+00:00;1705405351;554718301;55.4718302;103248915;10.324891;54.636426285224324;56.0;14.0;88.0;10.0;21.186;-43.29999923706055;-68.5999984741211;-6.199999809265137;19;-69.0;-11.0;16.5
38;2024-01-16 11:42:32.604210+00:00;1705405352;554718301;55.4718305;103248915;10.3248909;54.629425989281756;56.0;14.0;88.0;10.0;22.8;-39.70000076293945;-65.5999984741211;-6.699999809265137;18;-69.0;-11.0;15.0
39;2024-01-16 11:42:33.644354+00:00;1705405353;554718306;55.4718306;103248909;10.3248909;54.63542583546085;56.0;14.0;88.0;10.0;21.837;-41.5;-68.19999694824219;-6.900000095367432;16;-69.0;-11.0;17.0
40;2024-01-16 11:42:34.689184+00:00;1705405354;554718306;55.4718282;103248909;10.3248888;54.639433003074416;56.0;14.0;88.0;10.0;21.913;-39.5;-67.30000305175781;-7.599999904632568;18;-74.0;-11.0;17.0
41;2024-01-16 11:42:35.731818+00:00;1705405355;554718188;55.47181;103248815;10.3248761;54.65948201884579;56.0;14.0;88.0;10.0;22.905;-43.29999923706055;-69.5999984741211;-6.5;15;-74.0;-11.0;17.5
42;2024-01-16 11:42:36.774517+00:00;1705405356;554718188;55.4717975;103248815;10.3248679;54.69051481803099;56.0;14.0;88.0;10.0;22.015;-46.20000076293945;-73.0;-6.800000190734863;12;-74.0;-11.0;16.0
43;2024-01-16 11:42:37.819133+00:00;1705405357;554717944;55.4717942;103248671;10.3248663;54.630522542097545;56.0;14.0;88.0;10.0;22.953;-42.29999923706055;-68.69999694824219;-6.900000095367432;16;-74.0;-11.0;16.5
44;2024-01-16 11:42:38.859051+00:00;1705405358;554717944;55.4717982;103248671;10.3248698;54.61251059652484;56.0;14.0;88.0;10.0;21.337;-43.79999923706055;-70.69999694824219;-6.800000190734863;14;-74.0;-11.0;17.0
45;2024-01-16 11:42:39.899081+00:00;1705405359;554717944;55.4718095;103248671;10.3248778;54.61147997411973;56.0;14.0;88.0;10.0;20.221;-41.599998474121094;-69.4000015258789;-6.900000095367432;13;-74.0;-11.0;17.5
46;2024-01-16 11:42:40.941217+00:00;1705405360;554718156;55.4718207;103248824;10.3248853;54.61545033271126;56.0;14.0;88.0;10.0;27.325;-33.099998474121094;-61.599998474121094;-7.199999809265137;20;-74.0;-11.0;15.5
47;2024-01-16 11:42:41.981630+00:00;1705405361;554718156;55.4718259;103248824;10.324882;54.6224477962583;56.0;14.0;88.0;10.0;21.973;-38.900001525878906;-69.0;-7.199999809265137;17;-74.0;-11.0;11.5
48;2024-01-16 11:42:43.024139+00:00;1705405363;554718273;55.4718287;103248742;10.3248624;54.61247593098858;56.0;14.0;88.0;10.0;20.414;-41.5;-68.4000015258789;-6.400000095367432;12;-74.0;-11.0;13.5
49;2024-01-16 11:42:44.069452+00:00;1705405364;554718273;55.4718314;103248742;10.3248341;54.61551861930618;56.0;14.0;88.0;10.0;21.014;-32.099998474121094;-60.20000076293945;-6.0;22;-74.0;-11.0;13.0
50;2024-01-16 11:42:45.119108+00:00;1705405365;554718323;55.4718325;103248191;10.3248185;54.626542747823216;56.0;14.0;88.0;10.0;22.851;-36.79999923706055;-62.20000076293945;-5.800000190734863;22;-80.0;-11.0;11.0
51;2024-01-16 11:42:46.159406+00:00;1705405366;554718323;55.4718312;103248191;10.3248213;54.66154011300363;56.0;14.0;88.0;10.0;23.028;-44.70000076293945;-65.5999984741211;-6.800000190734863;14;-80.0;-11.0;11.5
52;2024-01-16 11:42:47.206889+00:00;1705405367;554718323;55.4718265;103248191;10.3248411;54.65451457019233;56.0;14.0;88.0;10.0;22.017;-44.79999923706055;-71.80000305175781;-6.5;9;-80.0;-11.0;10.5
53;2024-01-16 11:42:48.246567+00:00;1705405368;554718238;55.4718228;103248513;10.3248627;54.63448450970696;56.0;14.0;88.0;10.0;20.393;-41.70000076293945;-69.0999984741211;-6.599999904632568;11;-75.0;-11.0;10.0
54;2024-01-16 11:42:49.289102+00:00;1705405369;554718238;55.4718346;103248513;10.3248741;54.60744748993353;56.0;14.0;88.0;10.0;21.607;-42.900001525878906;-71.80000305175781;-7.699999809265137;12;-75.0;-11.0;10.5
55;2024-01-16 11:42:50.329136+00:00;1705405370;554718392;55.4718416;103248782;10.3248805;54.613426129158064;56.0;14.0;88.0;10.0;22.231;-38.5;-68.0;-8.5;15;-75.0;-11.0;11.5
56;2024-01-16 11:42:51.369145+00:00;1705405371;554718392;55.4718376;103248782;10.324878;54.640436420038945;56.0;14.0;88.0;10.0;20.667;-39.20000076293945;-65.0999984741211;-7.5;18;-75.0;-11.0;12.0
57;2024-01-16 11:42:52.409113+00:00;1705405372;554718271;55.4718265;103248704;10.3248705;54.66146590801575;56.0;14.0;88.0;10.0;22.978;-41.099998474121094;-68.30000305175781;-6.900000095367432;9;-75.0;-11.0;13.5
58;2024-01-16 11:42:53.451591+00:00;1705405373;554718271;55.4718028;103248704;10.324856;54.67252636240177;56.0;14.0;88.0;10.0;22.348;-42.5;-70.0999984741211;-7.300000190734863;14;-75.0;-11.0;14.5
59;2024-01-16 11:42:54.491562+00:00;1705405374;554718271;55.4717978;103248704;10.3248533;54.65253852195121;56.0;14.0;88.0;10.0;22.323;-44.400001525878906;-71.19999694824219;-7.300000190734863;13;-75.0;-11.0;16.0
60;2024-01-16 11:42:55.534151+00:00;1705405375;554717980;55.4718083;103248537;10.3248621;54.61250780613711;56.0;14.0;88.0;10.0;22.816;-39.29999923706055;-67.5;-7.099999904632568;16;-75.0;-11.0;17.5
61;2024-01-16 11:42:56.574403+00:00;1705405376;554717980;55.4718269;103248537;10.3248775;54.58845370642515;56.0;14.0;88.0;10.0;21.699;-40.29999923706055;-69.4000015258789;-7.599999904632568;16;-75.0;-11.0;15.5
62;2024-01-16 11:42:57.624188+00:00;1705405377;554718331;55.4718387;103248819;10.3248816;54.59542876928451;56.0;14.0;88.0;10.0;23.116;-38.5;-64.19999694824219;-6.900000095367432;19;-75.0;-11.0;16.5
63;2024-01-16 11:42:58.664264+00:00;1705405378;554718331;55.4718456;103248819;10.3248699;54.615437521359404;56.0;14.0;88.0;10.0;24.005;-38.599998474121094;-65.0999984741211;-6.599999904632568;20;-69.0;-11.0;15.5
64;2024-01-16 11:42:59.709021+00:00;1705405379;554718403;55.4718326;103248503;10.3248388;54.83050899420602;56.0;14.0;88.0;10.0;27.491;-42.599998474121094;-68.0999984741211;-6.400000095367432;15;-69.0;-11.0;16.0
65;2024-01-16 11:43:00.756900+00:00;1705405380;554718403;55.4718144;103248503;10.3248175;54.98257224348182;56.0;14.0;88.0;10.0;21.52;-43.29999923706055;-69.80000305175781;-6.599999904632568;12;-64.0;-11.0;20.5
66;2024-01-16 11:43:01.796708+00:00;1705405381;554718013;55.4718008;103248067;10.3248063;55.06461169934673;56.0;14.0;88.0;10.0;21.903;-34.70000076293945;-68.9000015258789;-7.699999809265137;26;-64.0;-11.0;22.0
67;2024-01-16 11:43:02.836824+00:00;1705405382;554718013;55.4717916;103248067;10.3248156;55.172610457061495;56.0;14.0;88.0;10.0;21.952;-40.20000076293945;-66.19999694824219;-6.400000095367432;20;-75.0;-11.0;14.0
68;2024-01-16 11:43:03.879823+00:00;1705405383;554718013;55.4717917;103248067;10.3248401;55.15756975239742;56.0;14.0;88.0;10.0;23.52;-39.099998474121094;-66.4000015258789;-6.800000190734863;15;-68.0;-11.0;9.0
69;2024-01-16 11:43:04.919382+00:00;1705405384;554717933;55.4717953;103248512;10.3248607;55.17253011907235;56.0;14.0;88.0;10.0;27.358;-43.400001525878906;-70.4000015258789;-7.0;15;-68.0;-11.0;12.5
70;2024-01-16 11:43:06.061697+00:00;1705405386;554717933;55.4718101;103248512;10.3248938;55.15445256826395;56.0;14.0;88.0;10.0;26.003;-40.79999923706055;-69.9000015258789;-7.599999904632568;15;-68.0;-11.0;14.5
71;2024-01-16 11:43:07.104358+00:00;1705405387;554718143;55.4718198;103248969;10.3248968;55.281432682342086;56.0;14.0;88.0;10.0;20.847;-40.79999923706055;-66.30000305175781;-6.599999904632568;20;-68.0;-11.0;17.5
72;2024-01-16 11:43:08.146670+00:00;1705405388;554718143;55.4718298;103248969;10.3248864;55.27943451442289;56.0;14.0;88.0;10.0;22.043;-40.099998474121094;-67.5999984741211;-7.400000095367432;16;-68.0;-11.0;15.5
73;2024-01-16 11:43:09.192106+00:00;1705405389;554718318;55.4718318;103248674;10.3248672;55.33346321770817;56.0;14.0;88.0;10.0;21.756;-41.0;-70.30000305175781;-7.300000190734863;14;-68.0;-11.0;16.0
74;2024-01-16 11:43:10.234395+00:00;1705405390;554718318;55.4718223;103248674;10.3248264;55.33854536133322;56.0;14.0;88.0;10.0;21.307;-41.20000076293945;-70.0999984741211;-7.800000190734863;12;-80.0;-11.0;11.5
75;2024-01-16 11:43:11.274817+00:00;1705405391;554718318;55.4718067;103248674;10.3248016;55.3676104036641;56.0;14.0;88.0;10.0;23.437;-43.29999923706055;-68.9000015258789;-7.0;17;-80.0;-11.0;11.5
76;2024-01-16 11:43:12.321689+00:00;1705405392;554718074;55.4717881;103248030;10.3247774;55.42167906572238;56.0;14.0;88.0;10.0;20.934;-41.29999923706055;-70.5;-7.900000095367432;15;-86.0;-11.0;9.0
77;2024-01-16 11:43:13.371726+00:00;1705405393;554718074;55.471772;103248030;10.324753;55.45174421215041;56.0;14.0;88.0;10.0;23.157;-40.400001525878906;-68.0;-7.5;19;-77.0;-11.0;15.0
78;2024-01-16 11:43:14.416729+00:00;1705405394;554717676;55.4717644;103247446;10.3247336;55.372788009199596;56.0;14.0;88.0;10.0;21.492;-39.900001525878906;-66.0999984741211;-6.599999904632568;19;-77.0;-11.0;15.0
79;2024-01-16 11:43:15.459112+00:00;1705405395;554717676;55.4717686;103247446;10.3247187;55.296806210054136;56.0;14.0;88.0;10.0;21.964;-43.79999923706055;-69.0;-6.599999904632568;13;-77.0;-11.0;12.5
80;2024-01-16 11:43:16.504128+00:00;1705405396;554717846;55.4717963;103247293;10.324749;55.33671345843753;56.0;14.0;88.0;10.0;28.486;-28.200000762939453;-54.599998474121094;-6.099999904632568;25;-68.0;-11.0;20.0
81;2024-01-16 11:43:17.544343+00:00;1705405397;554717846;55.4718208;103247293;10.3247969;55.337596495323396;56.0;14.0;88.0;10.0;20.666;-41.0;-67.5;-6.5;10;-68.0;-11.0;26.0
82;2024-01-16 11:43:18.589271+00:00;1705405398;554718472;55.4718485;103248235;10.324824;55.294509033433854;56.0;14.0;88.0;10.0;20.503;-34.900001525878906;-61.20000076293945;-6.099999904632568;24;-73.0;-11.0;26.0
83;2024-01-16 11:43:19.631095+00:00;1705405399;554718472;55.471872;103248235;10.3248133;55.28049059545983;56.0;14.0;88.0;10.0;22.973;-36.29999923706055;-61.099998474121094;-6.099999904632568;21;-66.0;-11.0;28.0
84;2024-01-16 11:43:20.671948+00:00;1705405400;554718472;55.4718804;103248235;10.3247713;55.32154719119444;56.0;14.0;88.0;10.0;19.963;-36.0;-62.79999923706055;-6.199999809265137;21;-66.0;-11.0;29.5
85;2024-01-16 11:43:21.714601+00:00;1705405401;554718746;55.4718636;103247483;10.3247293;55.40964254886288;56.0;14.0;88.0;10.0;22.834;-33.29999923706055;-60.79999923706055;-6.099999904632568;20;-82.0;-11.0;12.0
86;2024-01-16 11:43:22.754671+00:00;1705405402;554718746;55.4718204;103247483;10.3247132;55.466735643143906;56.0;14.0;88.0;10.0;22.755;-33.20000076293945;-60.70000076293945;-6.5;20;-74.0;-11.0;11.0
87;2024-01-16 11:43:23.794436+00:00;1705405403;554718099;55.4718012;103247130;10.324708;55.460773780231314;56.0;14.0;88.0;10.0;30.341;-36.0;-60.099998474121094;-6.099999904632568;23;-74.0;-11.0;15.0
88;2024-01-16 11:43:24.836671+00:00;1705405404;554718099;55.4717953;103247130;10.3247005;55.35679526756099;56.0;14.0;88.0;10.0;21.907;-42.5;-69.19999694824219;-6.5;18;-74.0;-11.0;8.0
89;2024-01-16 11:43:25.880673+00:00;1705405405;554718041;55.4718032;103247120;10.3247123;55.30476358735781;56.0;14.0;88.0;10.0;23.065;-39.20000076293945;-65.5;-6.5;19;-67.0;-11.0;12.5
90;2024-01-16 11:43:27.069435+00:00;1705405407;554718041;55.471825;103247120;10.3247888;55.28960344174906;56.0;14.0;88.0;10.0;19.791;-43.70000076293945;-70.80000305175781;-7.699999809265137;11;-67.0;-11.0;12.0
91;2024-01-16 11:43:28.135709+00:00;1705405408;554718377;55.4718381;103248334;10.3248346;55.30850748589497;56.0;14.0;88.0;10.0;26.508;-37.20000076293945;-63.20000076293945;-7.0;20;-67.0;-11.0;15.0
92;2024-01-16 11:43:29.179220+00:00;1705405409;554718377;55.4718522;103248334;10.3248503;55.28145981082535;56.0;14.0;88.0;10.0;21.483;-36.0;-62.29999923706055;-6.699999809265137;15;-67.0;-11.0;17.0
93;2024-01-16 11:43:30.227369+00:00;1705405410;554718377;55.471861;103248334;10.3248413;55.27146117104455;56.0;14.0;88.0;10.0;22.307;-43.900001525878906;-70.0999984741211;-6.900000095367432;13;-67.0;-11.0;16.0
94;2024-01-16 11:43:31.276665+00:00;1705405411;554718592;55.4718531;103248307;10.3248206;55.312507585248355;56.0;14.0;88.0;10.0;26.378;-38.0;-64.69999694824219;-6.900000095367432;23;-77.0;-11.0;10.5
95;2024-01-16 11:43:32.320543+00:00;1705405412;554718592;55.471818;103248307;10.3247915;55.456609739793905;56.0;14.0;88.0;10.0;21.861;-36.0;-63.70000076293945;-6.699999809265137;21;-77.0;-11.0;10.0
96;2024-01-16 11:43:33.364528+00:00;1705405413;554718095;55.4718063;103247859;10.3247781;55.48064991426806;56.0;14.0;88.0;10.0;21.218;-43.0;-72.0;-7.900000095367432;16;-77.0;-11.0;12.5
97;2024-01-16 11:43:34.407125+00:00;1705405414;554718095;55.4718131;103247859;10.3247681;55.286656006365085;56.0;14.0;88.0;10.0;20.867;-44.400001525878906;-71.5;-7.900000095367432;13;-77.0;-11.0;10.5
98;2024-01-16 11:43:35.451662+00:00;1705405415;554718235;55.4718228;103247667;10.3247662;55.24664423144503;56.0;14.0;88.0;10.0;21.728;-38.70000076293945;-65.9000015258789;-7.400000095367432;15;-70.0;-11.0;8.0
99;2024-01-16 11:43:36.496641+00:00;1705405416;554718235;55.4718273;103247667;10.3247836;55.29760851072143;56.0;14.0;88.0;10.0;22.251;-39.0;-66.80000305175781;-7.699999809265137;18;-70.0;-11.0;8.5
100;2024-01-16 11:43:37.536589+00:00;1705405417;554718235;55.4718266;103247667;10.3248176;55.29055331261978;56.0;14.0;88.0;10.0;22.619;-39.599998474121094;-68.19999694824219;-7.900000095367432;16;-70.0;-11.0;9.0
101;2024-01-16 11:43:38.579398+00:00;1705405418;554718250;55.4718228;103248350;10.3248653;55.1904802062415;56.0;14.0;88.0;10.0;24.687;-45.400001525878906;-68.9000015258789;-7.300000190734863;15;-70.0;-11.0;11.0
102;2024-01-16 11:43:39.619108+00:00;1705405419;554718250;55.471821;103248350;10.324877;54.95746360932265;56.0;14.0;88.0;10.0;22.676;-42.5;-69.0;-7.300000190734863;15;-65.0;-11.0;13.0
103;2024-01-16 11:43:40.661673+00:00;1705405420;554718201;55.4718191;103248773;10.3248802;54.72646123526702;56.0;14.0;88.0;10.0;27.113;-41.0;-67.80000305175781;-6.900000095367432;18;-65.0;-11.0;14.5
104;2024-01-16 11:43:41.701621+00:00;1705405421;554718201;55.4718164;103248773;10.3248941;54.57644238120397;56.0;14.0;88.0;10.0;19.529;-43.20000076293945;-71.0999984741211;-7.400000095367432;5;-65.0;-11.0;16.0
105;2024-01-16 11:43:42.744959+00:00;1705405422;554718134;55.4718134;103249187;10.3249191;54.45540561573207;56.0;14.0;88.0;10.0;22.756;-41.599998474121094;-67.0;-6.699999809265137;17;-77.0;-11.0;6.5
106;2024-01-16 11:43:43.789206+00:00;1705405423;554718134;55.471809;103249187;10.3249513;54.29935908580376;56.0;14.0;88.0;10.0;22.832;-37.0;-63.900001525878906;-7.0;21;-72.0;-11.0;10.0
107;2024-01-16 11:43:44.834210+00:00;1705405424;554718134;55.4718011;103249187;10.3249912;53.90730519370054;56.0;14.0;88.0;10.0;22.397;-39.20000076293945;-68.30000305175781;-7.5;16;-62.0;-11.0;15.0
108;2024-01-16 11:43:45.881727+00:00;1705405425;554718013;55.471797;103249905;10.3250084;53.57528303005141;56.0;14.0;88.0;10.0;21.792;-47.79999923706055;-78.0;-8.800000190734863;15;-70.0;-11.0;10.5
109;2024-01-16 11:43:46.924231+00:00;1705405426;554718013;55.4717938;103249905;10.325021;53.158267096079996;56.0;14.0;88.0;10.0;27.992;-37.0;-63.599998474121094;-7.0;27;-58.0;-11.0;14.0
110;2024-01-16 11:43:48.014190+00:00;1705405427;554717934;55.4717927;103250227;10.3250242;52.76326349127636;56.0;14.0;88.0;10.0;22.82;-40.900001525878906;-66.0;-6.400000095367432;25;-58.0;-11.0;14.0
111;2024-01-16 11:43:49.056603+00:00;1705405429;554717934;55.471791;103250227;10.3250259;52.55326329228883;56.0;14.0;88.0;10.0;19.94;-50.29999923706055;-76.5999984741211;-6.300000190734863;23;-63.0;-11.0;17.0
